<svg xmlns="http://www.w3.org/2000/svg" width="512" height="477" stroke="none" stroke-linecap="round" stroke-linejoin="round" fill="#fff" fill-rule="nonzero">
    <path d="M490 122c-13-25-32-47-56-65C386 20 323 0 256 0S126 20 78 57c-24 18-43 40-56 65-15 25-22 53-22 82 0 28 7 56 22 82 12 22 29 43 50 60L61 459c-2 12 10 21 21 16l151-68h0c7 0 15 1 23 1 67 0 130-21 178-57 24-19 43-41 56-65 15-26 22-54 22-82 0-29-7-57-22-82z" fill="#353640"/>
    <path d="M395 300c-37 29-86 45-139 45-54 0-103-16-140-45-35-26-54-61-54-97s19-70 54-97c37-28 86-44 140-44 53 0 102 16 139 44 35 27 54 61 54 97s-19 71-54 97z" fill="#ffd782"/>
    <path d="M85 226c0-36 19-71 53-97 37-29 87-44 140-44s103 15 140 44c2 1 3 2 4 3-7-9-16-18-27-26-37-28-86-44-139-44-54 0-103 16-140 44-35 27-54 61-54 97 0 35 17 68 49 94-17-21-26-46-26-71z" fill="#000" opacity=".1"/>
    <path d="M230 105h52v123h-52zm0 179c0-14 12-26 26-26s26 12 26 26-12 26-26 26-26-12-26-26z" fill="#353640"/>
</svg>